[
  {
    "serialKey": "F7QA8VWY"
  },
  {
    "serialKey": "E6N3XH19"
  },
  {
    "serialKey": "1Q2ZEJJE"
  },
  {
    "serialKey": "M1XJAJJR"
  },
  {
    "serialKey": "WDQZDWPP"
  },
  {
    "serialKey": "XF4PC1BQ"
  },
  {
    "serialKey": "M6E9TA3V"
  },
  {
    "serialKey": "V4U8ME1F"
  },
  {
    "serialKey": "NFAR2SHY"
  },
  {
    "serialKey": "XA59BHXA"
  },
  {
    "serialKey": "C7VA7MCM"
  },
  {
    "serialKey": "YZREB2FN"
  },
  {
    "serialKey": "Y4MA5VWU"
  },
  {
    "serialKey": "NWQ81BHE"
  },
  {
    "serialKey": "8RFHUWHH"
  },
  {
    "serialKey": "DKTSMX25"
  },
  {
    "serialKey": "K9G7BU1H"
  },
  {
    "serialKey": "RGX5T6GH"
  },
  {
    "serialKey": "NKMVAA7S"
  },
  {
    "serialKey": "NDHJ9B6W"
  },
  {
    "serialKey": "N7KHJBFX"
  },
  {
    "serialKey": "W37EDAF6"
  },
  {
    "serialKey": "ZEFC82MS"
  },
  {
    "serialKey": "7B3P258X"
  },
  {
    "serialKey": "K1GV196Z"
  },
  {
    "serialKey": "QMV9Y1WQ"
  },
  {
    "serialKey": "B32ZD332"
  },
  {
    "serialKey": "86D4ZU7F"
  },
  {
    "serialKey": "GNJ6DCH8"
  },
  {
    "serialKey": "HTZYH7NE"
  },
  {
    "serialKey": "NJSJYQJ3"
  },
  {
    "serialKey": "FUVFBVY6"
  },
  {
    "serialKey": "UP31DNE5"
  },
  {
    "serialKey": "2F1UKWMC"
  },
  {
    "serialKey": "V1T3GUTG"
  },
  {
    "serialKey": "CN2899QZ"
  }
]